Turkish Health Surveys
…
Maximum             10.134285
1. Quartile          0.000000
3. Quartile          0.000000
Mean                 0.249285
Median               0.000000
Sum               2227.858091
SE Mean              0.008489
LCL Mean             0.232645
UCL Mean             0.265924
Variance             0.643956
Stdev                0.802469
Skewness             4.693527
Kurtosis            28.027789

# A tibble: 316 × 3
# Groups:   isco3_08 [127]
   isco3_08 overedu     n
      <dbl>   <dbl> <int>
 1      110   0         7
 2      110   2.43      1
 3      111   0        33
 4      111   0.245    16
 5      111   2.25      1
 6      112   0        32
 7      112   1.18      2
 8      121   0        68
 9      121   1.09      4
10      122   0        32
# … with 306 more rows
…
